^D:\备份\SYNOLOGYDRIVE\MY PROJIECT\VS2015 保存\THREELETTERS\THREELETTERS\DEBUG\STDAFX.OBJ|D:\备份\SYNOLOGYDRIVE\MY PROJIECT\VS2015 保存\THREELETTERS\THREELETTERS\DEBUG\THREELETTERS.OBJ
/OUT:"D:\备份\SYNOLOGYDRIVE\MY PROJIECT\VS2015 保存\THREELETTERS\DEBUG\THREELETTERS.EXE" /INCREMENTAL /NOLOGO kernel32.lib user32.lib gdi32.lib winspool.lib comdlg32.lib advapi32.lib shell32.lib ole32.lib oleaut32.lib uuid.lib odbc32.lib odbccp32.lib /MANIFEST /MANIFESTUAC:"level='asInvoker' uiAccess='false'" /manifest:embed /DEBUG /PDB:"D:\备份\SYNOLOGYDRIVE\MY PROJIECT\VS2015 保存\THREELETTERS\DEBUG\THREELETTERS.PDB" /SUBSYSTEM:CONSOLE /TLBID:1 /DYNAMICBASE /NXCOMPAT /IMPLIB:"D:\备份\SYNOLOGYDRIVE\MY PROJIECT\VS2015 保存\THREELETTERS\DEBUG\THREELETTERS.LIB" /MACHINE:X86 DEBUG\STDAFX.OBJDEBUG\THREELETTERS.OBJ
^D:\备份\2019.5.7新备份\变动文件\嵌入式支持-调试\SELF_PROJECT\SELF_USEFILES\THREELETTERS\THREELETTERS\DEBUG\STDAFX.OBJ|D:\备份\2019.5.7新备份\变动文件\嵌入式支持-调试\SELF_PROJECT\SELF_USEFILES\THREELETTERS\THREELETTERS\DEBUG\THREELETTERS.OBJ
/OUT:"D:\备份\2019.5.7新备份\变动文件\嵌入式支持-调试\SELF_PROJECT\SELF_USEFILES\THREELETTERS\DEBUG\THREELETTERS.EXE" /INCREMENTAL /NOLOGO kernel32.lib user32.lib gdi32.lib winspool.lib comdlg32.lib advapi32.lib shell32.lib ole32.lib oleaut32.lib uuid.lib odbc32.lib odbccp32.lib /MANIFEST /MANIFESTUAC:"level='asInvoker' uiAccess='false'" /manifest:embed /DEBUG /PDB:"D:\备份\2019.5.7新备份\变动文件\嵌入式支持-调试\SELF_PROJECT\SELF_USEFILES\THREELETTERS\DEBUG\THREELETTERS.PDB" /SUBSYSTEM:CONSOLE /TLBID:1 /DYNAMICBASE /NXCOMPAT /IMPLIB:"D:\备份\2019.5.7新备份\变动文件\嵌入式支持-调试\SELF_PROJECT\SELF_USEFILES\THREELETTERS\DEBUG\THREELETTERS.LIB" /MACHINE:X86 DEBUG\STDAFX.OBJDEBUG\THREELETTERS.OBJ
