^D:\备份\2019.5.7新备份\变动文件\嵌入式支持-调试\SELF_PROJECT\SELF_VISUALSTUDIO\CONSOLEAPPLICATIONSELFPROJECT_C\X64\RELEASE\ARRAYPEARANDPEARARRAY.OBJ|D:\备份\2019.5.7新备份\变动文件\嵌入式支持-调试\SELF_PROJECT\SELF_VISUALSTUDIO\CONSOLEAPPLICATIONSELFPROJECT_C\X64\RELEASE\MAIN.OBJ|D:\备份\2019.5.7新备份\变动文件\嵌入式支持-调试\SELF_PROJECT\SELF_VISUALSTUDIO\CONSOLEAPPLICATIONSELFPROJECT_C\X64\RELEASE\SELF_ACCSTOHEX.OBJ|D:\备份\2019.5.7新备份\变动文件\嵌入式支持-调试\SELF_PROJECT\SELF_VISUALSTUDIO\CONSOLEAPPLICATIONSELFPROJECT_C\X64\RELEASE\SELF_CRC.OBJ|D:\备份\2019.5.7新备份\变动文件\嵌入式支持-调试\SELF_PROJECT\SELF_VISUALSTUDIO\CONSOLEAPPLICATIONSELFPROJECT_C\X64\RELEASE\SELF_I2C.OBJ|D:\备份\2019.5.7新备份\变动文件\嵌入式支持-调试\SELF_PROJECT\SELF_VISUALSTUDIO\CONSOLEAPPLICATIONSELFPROJECT_C\X64\RELEASE\SELF_I2C_CFG.OBJ|D:\备份\2019.5.7新备份\变动文件\嵌入式支持-调试\SELF_PROJECT\SELF_VISUALSTUDIO\CONSOLEAPPLICATIONSELFPROJECT_C\X64\RELEASE\SELF_I2C_DVE.OBJ|D:\备份\2019.5.7新备份\变动文件\嵌入式支持-调试\SELF_PROJECT\SELF_VISUALSTUDIO\CONSOLEAPPLICATIONSELFPROJECT_C\X64\RELEASE\SELF_PRINTF.OBJ|D:\备份\2019.5.7新备份\变动文件\嵌入式支持-调试\SELF_PROJECT\SELF_VISUALSTUDIO\CONSOLEAPPLICATIONSELFPROJECT_C\X64\RELEASE\SELF_PRINTFUSE.OBJ|D:\备份\2019.5.7新备份\变动文件\嵌入式支持-调试\SELF_PROJECT\SELF_VISUALSTUDIO\CONSOLEAPPLICATIONSELFPROJECT_C\X64\RELEASE\SELF_SIGNAL_PROCESSING.OBJ|D:\备份\2019.5.7新备份\变动文件\嵌入式支持-调试\SELF_PROJECT\SELF_VISUALSTUDIO\CONSOLEAPPLICATIONSELFPROJECT_C\X64\RELEASE\STATE.OBJ
D:\备份\2019.5.7新备份\变动文件\嵌入式支持-调试\SELF_PROJECT\SELF_VISUALSTUDIO\CONSOLEAPPLICATIONSELFPROJECT_C\X64\RELEASE\CONSOLEAPPLICATIONSELFPROJECT_C.EXE
D:\备份\2019.5.7新备份\变动文件\嵌入式支持-调试\SELF_PROJECT\SELF_VISUALSTUDIO\CONSOLEAPPLICATIONSELFPROJECT_C\X64\RELEASE\CONSOLEAPPLICATIONSELFPROJECT_C.PDB
