^D:\备份\SYNOLOGYDRIVE\MY PROJIECT\VS2015 保存\ROTATIONSTRING\ROTATIONSTRING\STDAFX.CPP
D:\备份\SYNOLOGYDRIVE\MY PROJIECT\VS2015 保存\ROTATIONSTRING\ROTATIONSTRING\DEBUG\VC120.PDB
D:\备份\SYNOLOGYDRIVE\MY PROJIECT\VS2015 保存\ROTATIONSTRING\ROTATIONSTRING\DEBUG\VC120.IDB
