^D:\备份\SYNOLOGYDRIVE\MY PROJIECT\VS2015 保存\STRINGFUNCTION\STRINGFUNCTION\STDAFX.CPP
D:\备份\SYNOLOGYDRIVE\MY PROJIECT\VS2015 保存\STRINGFUNCTION\STRINGFUNCTION\DEBUG\STRINGFUNCTION.PCH.CODEANALYSIS
D:\备份\SYNOLOGYDRIVE\MY PROJIECT\VS2015 保存\STRINGFUNCTION\STRINGFUNCTION\DEBUG\VC120.PDB
D:\备份\SYNOLOGYDRIVE\MY PROJIECT\VS2015 保存\STRINGFUNCTION\STRINGFUNCTION\DEBUG\VC120.IDB
D:\备份\SYNOLOGYDRIVE\MY PROJIECT\VS2015 保存\STRINGFUNCTION\STRINGFUNCTION\DEBUG\STRINGFUNCTION.PCH.CODEANALYSISAST
D:\备份\SYNOLOGYDRIVE\MY PROJIECT\VS2015 保存\STRINGFUNCTION\STRINGFUNCTION\DEBUG\STDAFX.NATIVECODEANALYSIS.XML
^D:\备份\SYNOLOGYDRIVE\MY PROJIECT\VS2015 保存\STRINGFUNCTION\STRINGFUNCTION\STRINGFUNCTION.CPP
D:\备份\SYNOLOGYDRIVE\MY PROJIECT\VS2015 保存\STRINGFUNCTION\STRINGFUNCTION\DEBUG\VC120.PDB
D:\备份\SYNOLOGYDRIVE\MY PROJIECT\VS2015 保存\STRINGFUNCTION\STRINGFUNCTION\DEBUG\VC120.IDB
D:\备份\SYNOLOGYDRIVE\MY PROJIECT\VS2015 保存\STRINGFUNCTION\STRINGFUNCTION\DEBUG\STRINGFUNCTION.NATIVECODEANALYSIS.XML
D:\备份\SYNOLOGYDRIVE\MY PROJIECT\VS2015 保存\STRINGFUNCTION\STRINGFUNCTION\DEBUG\STRINGFUNCTION.OBJ
