^D:\备份\2019.5.7新备份\变动文件\嵌入式支持-调试\SELF_PROJECT\SELF_USEFILES\FLSUHBONADING\SELF_CRC\SELF_CRC.C
/c /I"D:\备份\2019.5.7新备份\变动文件\嵌入式支持-调试\self_project\self_useFiles\flsuhbonading\accs_tohex" /I"D:\备份\2019.5.7新备份\变动文件\嵌入式支持-调试\self_project\self_useFiles" /I"D:\备份\2019.5.7新备份\变动文件\嵌入式支持-调试\self_project\self_useFiles\flsuhbonading\accs_tohex" /Zi /nologo /W3 /WX- /O2 /Oi /Oy- /GL /D WIN32 /D NDEBUG /D _CONSOLE /D _LIB /D _UNICODE /D UNICODE /Gm- /EHsc /MD /GS /Gy /fp:precise /Zc:wchar_t /Zc:forScope /Fo"RELEASE\\" /Fd"RELEASE\VC120.PDB" /Gd /TC /analyze- D:\备份\2019.5.7新备份\变动文件\嵌入式支持-调试\SELF_PROJECT\SELF_USEFILES\FLSUHBONADING\SELF_CRC\SELF_CRC.C
^D:\备份\2019.5.7新备份\变动文件\嵌入式支持-调试\SELF_PROJECT\SELF_USEFILES\FLSUHBONADING\SELF_PRINTF\SELF_PRINTF.C
/c /I"D:\备份\2019.5.7新备份\变动文件\嵌入式支持-调试\self_project\self_useFiles\flsuhbonading\accs_tohex" /I"D:\备份\2019.5.7新备份\变动文件\嵌入式支持-调试\self_project\self_useFiles" /I"D:\备份\2019.5.7新备份\变动文件\嵌入式支持-调试\self_project\self_useFiles\flsuhbonading\accs_tohex" /Zi /nologo /W3 /WX- /O2 /Oi /Oy- /GL /D WIN32 /D NDEBUG /D _CONSOLE /D _LIB /D _UNICODE /D UNICODE /Gm- /EHsc /MD /GS /Gy /fp:precise /Zc:wchar_t /Zc:forScope /Fo"RELEASE\\" /Fd"RELEASE\VC120.PDB" /Gd /TC /analyze- D:\备份\2019.5.7新备份\变动文件\嵌入式支持-调试\SELF_PROJECT\SELF_USEFILES\FLSUHBONADING\SELF_PRINTF\SELF_PRINTF.C
^D:\备份\2019.5.7新备份\变动文件\嵌入式支持-调试\SELF_PROJECT\SELF_USEFILES\FLSUHBONADING\SELF_PRINTF\SELF_PRINTFUSE.C
/c /I"D:\备份\2019.5.7新备份\变动文件\嵌入式支持-调试\self_project\self_useFiles\flsuhbonading\accs_tohex" /I"D:\备份\2019.5.7新备份\变动文件\嵌入式支持-调试\self_project\self_useFiles" /I"D:\备份\2019.5.7新备份\变动文件\嵌入式支持-调试\self_project\self_useFiles\flsuhbonading\accs_tohex" /Zi /nologo /W3 /WX- /O2 /Oi /Oy- /GL /D WIN32 /D NDEBUG /D _CONSOLE /D _LIB /D _UNICODE /D UNICODE /Gm- /EHsc /MD /GS /Gy /fp:precise /Zc:wchar_t /Zc:forScope /Fo"RELEASE\\" /Fd"RELEASE\VC120.PDB" /Gd /TC /analyze- D:\备份\2019.5.7新备份\变动文件\嵌入式支持-调试\SELF_PROJECT\SELF_USEFILES\FLSUHBONADING\SELF_PRINTF\SELF_PRINTFUSE.C
^D:\备份\2019.5.7新备份\变动文件\嵌入式支持-调试\SELF_PROJECT\SELF_VISUALSTUDIO\CONSOLEAPPLICATIONSELFPROJECT_C\SELF_MAIN.CPP
/c /I"D:\备份\2019.5.7新备份\变动文件\嵌入式支持-调试\self_project\self_useFiles\flsuhbonading\accs_tohex" /I"D:\备份\2019.5.7新备份\变动文件\嵌入式支持-调试\self_project\self_useFiles" /I"D:\备份\2019.5.7新备份\变动文件\嵌入式支持-调试\self_project\self_useFiles\flsuhbonading\accs_tohex" /Zi /nologo /W3 /WX- /O2 /Oi /Oy- /GL /D WIN32 /D NDEBUG /D _CONSOLE /D _LIB /D _UNICODE /D UNICODE /Gm- /EHsc /MD /GS /Gy /fp:precise /Zc:wchar_t /Zc:forScope /Fo"RELEASE\\" /Fd"RELEASE\VC120.PDB" /Gd /TP /analyze- D:\备份\2019.5.7新备份\变动文件\嵌入式支持-调试\SELF_PROJECT\SELF_VISUALSTUDIO\CONSOLEAPPLICATIONSELFPROJECT_C\SELF_MAIN.CPP
^D:\备份\2019.5.7新备份\变动文件\嵌入式支持-调试\SELF_PROJECT\SELF_VISUALSTUDIO\CONSOLEAPPLICATIONSELFPROJECT_C\SELF_MAIN.C
/c /I"D:\备份\2019.5.7新备份\变动文件\嵌入式支持-调试\self_project\self_useFiles\flsuhbonading\accs_tohex" /I"D:\备份\2019.5.7新备份\变动文件\嵌入式支持-调试\self_project\self_useFiles" /I"D:\备份\2019.5.7新备份\变动文件\嵌入式支持-调试\self_project\self_useFiles\flsuhbonading\accs_tohex" /Zi /nologo /W3 /WX- /O2 /Oi /Oy- /GL /D WIN32 /D NDEBUG /D _CONSOLE /D _LIB /D _UNICODE /D UNICODE /Gm- /EHsc /MD /GS /Gy /fp:precise /Zc:wchar_t /Zc:forScope /Fo"RELEASE\\" /Fd"RELEASE\VC120.PDB" /Gd /TC /analyze- D:\备份\2019.5.7新备份\变动文件\嵌入式支持-调试\SELF_PROJECT\SELF_VISUALSTUDIO\CONSOLEAPPLICATIONSELFPROJECT_C\SELF_MAIN.C
^D:\备份\2019.5.7新备份\变动文件\嵌入式支持-调试\SELF_PROJECT\SELF_USEFILES\FLSUHBONADING\ACCS_TOHEX\SELF_ACCSTOHEX.C
/c /I"D:\备份\2019.5.7新备份\变动文件\嵌入式支持-调试\self_project\self_useFiles\flsuhbonading\accs_tohex" /I"D:\备份\2019.5.7新备份\变动文件\嵌入式支持-调试\self_project\self_useFiles" /I"D:\备份\2019.5.7新备份\变动文件\嵌入式支持-调试\self_project\self_useFiles\flsuhbonading\accs_tohex" /Zi /nologo /W3 /WX- /O2 /Oi /Oy- /GL /D WIN32 /D NDEBUG /D _CONSOLE /D _LIB /D _UNICODE /D UNICODE /Gm- /EHsc /MD /GS /Gy /fp:precise /Zc:wchar_t /Zc:forScope /Fo"RELEASE\\" /Fd"RELEASE\VC120.PDB" /Gd /TC /analyze- D:\备份\2019.5.7新备份\变动文件\嵌入式支持-调试\SELF_PROJECT\SELF_USEFILES\FLSUHBONADING\ACCS_TOHEX\SELF_ACCSTOHEX.C
^D:\备份\2019.5.7新备份\变动文件\嵌入式支持-调试\SELF_PROJECT\SELF_USEFILES\FLSUHBONADING\SELF_I2C\SELF_I2C.C
/c /I"D:\备份\2019.5.7新备份\变动文件\嵌入式支持-调试\self_project\self_useFiles\flsuhbonading\accs_tohex" /I"D:\备份\2019.5.7新备份\变动文件\嵌入式支持-调试\self_project\self_useFiles" /I"D:\备份\2019.5.7新备份\变动文件\嵌入式支持-调试\self_project\self_useFiles\flsuhbonading\accs_tohex" /Zi /nologo /W3 /WX- /O2 /Oi /Oy- /GL /D WIN32 /D NDEBUG /D _CONSOLE /D _LIB /D _UNICODE /D UNICODE /Gm- /EHsc /MD /GS /Gy /fp:precise /Zc:wchar_t /Zc:forScope /Fo"RELEASE\\" /Fd"RELEASE\VC120.PDB" /Gd /TC /analyze- D:\备份\2019.5.7新备份\变动文件\嵌入式支持-调试\SELF_PROJECT\SELF_USEFILES\FLSUHBONADING\SELF_I2C\SELF_I2C.C
^D:\备份\2019.5.7新备份\变动文件\嵌入式支持-调试\SELF_PROJECT\SELF_USEFILES\FLSUHBONADING\SELF_I2C\SELF_I2C_CFG.C
/c /I"D:\备份\2019.5.7新备份\变动文件\嵌入式支持-调试\self_project\self_useFiles\flsuhbonading\accs_tohex" /I"D:\备份\2019.5.7新备份\变动文件\嵌入式支持-调试\self_project\self_useFiles" /I"D:\备份\2019.5.7新备份\变动文件\嵌入式支持-调试\self_project\self_useFiles\flsuhbonading\accs_tohex" /Zi /nologo /W3 /WX- /O2 /Oi /Oy- /GL /D WIN32 /D NDEBUG /D _CONSOLE /D _LIB /D _UNICODE /D UNICODE /Gm- /EHsc /MD /GS /Gy /fp:precise /Zc:wchar_t /Zc:forScope /Fo"RELEASE\\" /Fd"RELEASE\VC120.PDB" /Gd /TC /analyze- D:\备份\2019.5.7新备份\变动文件\嵌入式支持-调试\SELF_PROJECT\SELF_USEFILES\FLSUHBONADING\SELF_I2C\SELF_I2C_CFG.C
^D:\备份\2019.5.7新备份\变动文件\嵌入式支持-调试\SELF_PROJECT\SELF_USEFILES\FLSUHBONADING\SELF_I2C\SELF_I2C_DVE.C
/c /I"D:\备份\2019.5.7新备份\变动文件\嵌入式支持-调试\self_project\self_useFiles\flsuhbonading\accs_tohex" /I"D:\备份\2019.5.7新备份\变动文件\嵌入式支持-调试\self_project\self_useFiles" /I"D:\备份\2019.5.7新备份\变动文件\嵌入式支持-调试\self_project\self_useFiles\flsuhbonading\accs_tohex" /Zi /nologo /W3 /WX- /O2 /Oi /Oy- /GL /D WIN32 /D NDEBUG /D _CONSOLE /D _LIB /D _UNICODE /D UNICODE /Gm- /EHsc /MD /GS /Gy /fp:precise /Zc:wchar_t /Zc:forScope /Fo"RELEASE\\" /Fd"RELEASE\VC120.PDB" /Gd /TC /analyze- D:\备份\2019.5.7新备份\变动文件\嵌入式支持-调试\SELF_PROJECT\SELF_USEFILES\FLSUHBONADING\SELF_I2C\SELF_I2C_DVE.C
^D:\备份\2019.5.7新备份\变动文件\嵌入式支持-调试\SELF_PROJECT\SELF_USEFILES\FLSUHBONADING\OBJECTORIENTEDSTATEMODE\MAIN.CPP
/c /I"D:\备份\2019.5.7新备份\变动文件\嵌入式支持-调试\self_project\self_useFiles\flsuhbonading\accs_tohex" /I"D:\备份\2019.5.7新备份\变动文件\嵌入式支持-调试\self_project\self_useFiles" /I"D:\备份\2019.5.7新备份\变动文件\嵌入式支持-调试\self_project\self_useFiles\flsuhbonading\accs_tohex" /Zi /nologo /W3 /WX- /O2 /Oi /Oy- /GL /D WIN32 /D NDEBUG /D _CONSOLE /D _LIB /D _UNICODE /D UNICODE /Gm- /EHsc /MD /GS /Gy /fp:precise /Zc:wchar_t /Zc:forScope /Fo"RELEASE\\" /Fd"RELEASE\VC120.PDB" /Gd /TP /analyze- D:\备份\2019.5.7新备份\变动文件\嵌入式支持-调试\SELF_PROJECT\SELF_USEFILES\FLSUHBONADING\OBJECTORIENTEDSTATEMODE\MAIN.CPP
^D:\备份\2019.5.7新备份\变动文件\嵌入式支持-调试\SELF_PROJECT\SELF_USEFILES\FLSUHBONADING\OBJECTORIENTEDSTATEMODE\STATE.CPP
/c /I"D:\备份\2019.5.7新备份\变动文件\嵌入式支持-调试\self_project\self_useFiles\flsuhbonading\accs_tohex" /I"D:\备份\2019.5.7新备份\变动文件\嵌入式支持-调试\self_project\self_useFiles" /I"D:\备份\2019.5.7新备份\变动文件\嵌入式支持-调试\self_project\self_useFiles\flsuhbonading\accs_tohex" /Zi /nologo /W3 /WX- /O2 /Oi /Oy- /GL /D WIN32 /D NDEBUG /D _CONSOLE /D _LIB /D _UNICODE /D UNICODE /Gm- /EHsc /MD /GS /Gy /fp:precise /Zc:wchar_t /Zc:forScope /Fo"RELEASE\\" /Fd"RELEASE\VC120.PDB" /Gd /TP /analyze- D:\备份\2019.5.7新备份\变动文件\嵌入式支持-调试\SELF_PROJECT\SELF_USEFILES\FLSUHBONADING\OBJECTORIENTEDSTATEMODE\STATE.CPP
^D:\备份\2019.5.7新备份\变动文件\嵌入式支持-调试\SELF_PROJECT\SELF_USEFILES\FLSUHBONADING\SELF_SIGNAL_PROCESSING\SELF_SIGNAL_PROCESSING.CPP
/c /I"D:\备份\2019.5.7新备份\变动文件\嵌入式支持-调试\self_project\self_useFiles\flsuhbonading\accs_tohex" /I"D:\备份\2019.5.7新备份\变动文件\嵌入式支持-调试\self_project\self_useFiles" /I"D:\备份\2019.5.7新备份\变动文件\嵌入式支持-调试\self_project\self_useFiles\flsuhbonading\accs_tohex" /Zi /nologo /W3 /WX- /O2 /Oi /Oy- /GL /D WIN32 /D NDEBUG /D _CONSOLE /D _LIB /D _UNICODE /D UNICODE /Gm- /EHsc /MD /GS /Gy /fp:precise /Zc:wchar_t /Zc:forScope /Fo"RELEASE\\" /Fd"RELEASE\VC120.PDB" /Gd /TP /analyze- D:\备份\2019.5.7新备份\变动文件\嵌入式支持-调试\SELF_PROJECT\SELF_USEFILES\FLSUHBONADING\SELF_SIGNAL_PROCESSING\SELF_SIGNAL_PROCESSING.CPP
^D:\备份\2019.5.7新备份\变动文件\嵌入式支持-调试\SELF_PROJECT\SELF_USEFILES\POINTERLEARNINGANDPRACTICE\ARRAYPEARANDPEARARRAY\ARRAYPEARANDPEARARRAY\ARRAYPEARANDPEARARRAY.CPP
/c /I"D:\备份\2019.5.7新备份\变动文件\嵌入式支持-调试\self_project\self_useFiles\flsuhbonading\accs_tohex" /I"D:\备份\2019.5.7新备份\变动文件\嵌入式支持-调试\self_project\self_useFiles" /I"D:\备份\2019.5.7新备份\变动文件\嵌入式支持-调试\self_project\self_useFiles\flsuhbonading\accs_tohex" /Zi /nologo /W3 /WX- /O2 /Oi /Oy- /GL /D WIN32 /D NDEBUG /D _CONSOLE /D _LIB /D _UNICODE /D UNICODE /Gm- /EHsc /MD /GS /Gy /fp:precise /Zc:wchar_t /Zc:forScope /Fo"RELEASE\\" /Fd"RELEASE\VC120.PDB" /Gd /TP /analyze- D:\备份\2019.5.7新备份\变动文件\嵌入式支持-调试\SELF_PROJECT\SELF_USEFILES\POINTERLEARNINGANDPRACTICE\ARRAYPEARANDPEARARRAY\ARRAYPEARANDPEARARRAY\ARRAYPEARANDPEARARRAY.CPP
