^D:\备份\2019.5.7新备份\变动文件\嵌入式支持-调试\SELF_PROJECT\SELF_VISUALSTUDIO\CONSOLEAPPLICATIONSELFPROJECT_C\RELEASE\ARRAYPEARANDPEARARRAY.OBJ|D:\备份\2019.5.7新备份\变动文件\嵌入式支持-调试\SELF_PROJECT\SELF_VISUALSTUDIO\CONSOLEAPPLICATIONSELFPROJECT_C\RELEASE\MAIN.OBJ|D:\备份\2019.5.7新备份\变动文件\嵌入式支持-调试\SELF_PROJECT\SELF_VISUALSTUDIO\CONSOLEAPPLICATIONSELFPROJECT_C\RELEASE\SELF_ACCSTOHEX.OBJ|D:\备份\2019.5.7新备份\变动文件\嵌入式支持-调试\SELF_PROJECT\SELF_VISUALSTUDIO\CONSOLEAPPLICATIONSELFPROJECT_C\RELEASE\SELF_CRC.OBJ|D:\备份\2019.5.7新备份\变动文件\嵌入式支持-调试\SELF_PROJECT\SELF_VISUALSTUDIO\CONSOLEAPPLICATIONSELFPROJECT_C\RELEASE\SELF_I2C.OBJ|D:\备份\2019.5.7新备份\变动文件\嵌入式支持-调试\SELF_PROJECT\SELF_VISUALSTUDIO\CONSOLEAPPLICATIONSELFPROJECT_C\RELEASE\SELF_I2C_CFG.OBJ|D:\备份\2019.5.7新备份\变动文件\嵌入式支持-调试\SELF_PROJECT\SELF_VISUALSTUDIO\CONSOLEAPPLICATIONSELFPROJECT_C\RELEASE\SELF_I2C_DVE.OBJ|D:\备份\2019.5.7新备份\变动文件\嵌入式支持-调试\SELF_PROJECT\SELF_VISUALSTUDIO\CONSOLEAPPLICATIONSELFPROJECT_C\RELEASE\SELF_PRINTF.OBJ|D:\备份\2019.5.7新备份\变动文件\嵌入式支持-调试\SELF_PROJECT\SELF_VISUALSTUDIO\CONSOLEAPPLICATIONSELFPROJECT_C\RELEASE\SELF_PRINTFUSE.OBJ|D:\备份\2019.5.7新备份\变动文件\嵌入式支持-调试\SELF_PROJECT\SELF_VISUALSTUDIO\CONSOLEAPPLICATIONSELFPROJECT_C\RELEASE\SELF_SIGNAL_PROCESSING.OBJ|D:\备份\2019.5.7新备份\变动文件\嵌入式支持-调试\SELF_PROJECT\SELF_VISUALSTUDIO\CONSOLEAPPLICATIONSELFPROJECT_C\RELEASE\STATE.OBJ
C:\WINDOWS\GLOBALIZATION\SORTING\SORTDEFAULT.NLS
C:\PROGRAM FILES (X86)\WINDOWS KITS\8.1\LIB\WINV6.3\UM\X86\KERNEL32.LIB
C:\PROGRAM FILES (X86)\WINDOWS KITS\8.1\LIB\WINV6.3\UM\X86\USER32.LIB
C:\PROGRAM FILES (X86)\WINDOWS KITS\8.1\LIB\WINV6.3\UM\X86\GDI32.LIB
C:\PROGRAM FILES (X86)\WINDOWS KITS\8.1\LIB\WINV6.3\UM\X86\WINSPOOL.LIB
C:\PROGRAM FILES (X86)\WINDOWS KITS\8.1\LIB\WINV6.3\UM\X86\COMDLG32.LIB
C:\PROGRAM FILES (X86)\WINDOWS KITS\8.1\LIB\WINV6.3\UM\X86\ADVAPI32.LIB
C:\PROGRAM FILES (X86)\WINDOWS KITS\8.1\LIB\WINV6.3\UM\X86\SHELL32.LIB
C:\PROGRAM FILES (X86)\WINDOWS KITS\8.1\LIB\WINV6.3\UM\X86\OLE32.LIB
C:\PROGRAM FILES (X86)\WINDOWS KITS\8.1\LIB\WINV6.3\UM\X86\OLEAUT32.LIB
C:\PROGRAM FILES (X86)\WINDOWS KITS\8.1\LIB\WINV6.3\UM\X86\UUID.LIB
C:\PROGRAM FILES (X86)\WINDOWS KITS\8.1\LIB\WINV6.3\UM\X86\ODBC32.LIB
C:\PROGRAM FILES (X86)\WINDOWS KITS\8.1\LIB\WINV6.3\UM\X86\ODBCCP32.LIB
D:\备份\2019.5.7新备份\变动文件\嵌入式支持-调试\SELF_PROJECT\SELF_VISUALSTUDIO\CONSOLEAPPLICATIONSELFPROJECT_C\RELEASE\SELF_ACCSTOHEX.OBJ
D:\备份\2019.5.7新备份\变动文件\嵌入式支持-调试\SELF_PROJECT\SELF_VISUALSTUDIO\CONSOLEAPPLICATIONSELFPROJECT_C\RELEASE\MAIN.OBJ
D:\备份\2019.5.7新备份\变动文件\嵌入式支持-调试\SELF_PROJECT\SELF_VISUALSTUDIO\CONSOLEAPPLICATIONSELFPROJECT_C\RELEASE\STATE.OBJ
D:\备份\2019.5.7新备份\变动文件\嵌入式支持-调试\SELF_PROJECT\SELF_VISUALSTUDIO\CONSOLEAPPLICATIONSELFPROJECT_C\RELEASE\SELF_CRC.OBJ
D:\备份\2019.5.7新备份\变动文件\嵌入式支持-调试\SELF_PROJECT\SELF_VISUALSTUDIO\CONSOLEAPPLICATIONSELFPROJECT_C\RELEASE\SELF_I2C.OBJ
D:\备份\2019.5.7新备份\变动文件\嵌入式支持-调试\SELF_PROJECT\SELF_VISUALSTUDIO\CONSOLEAPPLICATIONSELFPROJECT_C\RELEASE\SELF_I2C_CFG.OBJ
D:\备份\2019.5.7新备份\变动文件\嵌入式支持-调试\SELF_PROJECT\SELF_VISUALSTUDIO\CONSOLEAPPLICATIONSELFPROJECT_C\RELEASE\SELF_I2C_DVE.OBJ
D:\备份\2019.5.7新备份\变动文件\嵌入式支持-调试\SELF_PROJECT\SELF_VISUALSTUDIO\CONSOLEAPPLICATIONSELFPROJECT_C\RELEASE\SELF_PRINTF.OBJ
D:\备份\2019.5.7新备份\变动文件\嵌入式支持-调试\SELF_PROJECT\SELF_VISUALSTUDIO\CONSOLEAPPLICATIONSELFPROJECT_C\RELEASE\SELF_PRINTFUSE.OBJ
D:\备份\2019.5.7新备份\变动文件\嵌入式支持-调试\SELF_PROJECT\SELF_VISUALSTUDIO\CONSOLEAPPLICATIONSELFPROJECT_C\RELEASE\SELF_SIGNAL_PROCESSING.OBJ
D:\备份\2019.5.7新备份\变动文件\嵌入式支持-调试\SELF_PROJECT\SELF_VISUALSTUDIO\CONSOLEAPPLICATIONSELFPROJECT_C\RELEASE\ARRAYPEARANDPEARARRAY.OBJ
C:\PROGRAM FILES (X86)\MICROSOFT VISUAL STUDIO 12.0\VC\BIN\C2.DLL
C:\PROGRAM FILES (X86)\MICROSOFT VISUAL STUDIO 12.0\VC\LIB\MSVCRT.LIB
C:\PROGRAM FILES (X86)\MICROSOFT VISUAL STUDIO 12.0\VC\LIB\OLDNAMES.LIB
C:\PROGRAM FILES (X86)\MICROSOFT VISUAL STUDIO 12.0\VC\BIN\2052\LINKUI.DLL
C:\PROGRAM FILES (X86)\WINDOWS KITS\8.1\BIN\X86\RC.EXE
C:\PROGRAM FILES (X86)\MICROSOFT VISUAL STUDIO 12.0\VC\BIN\CVTRES.EXE
C:\WINDOWS\SYSTEM32\TZRES.DLL
