^D:\备份\2019.5.7新备份\变动文件\嵌入式支持-调试\SELF_PROJECT\SELF_USEFILES\CLASSICPRACTICE\GATHER\GATHER\DEBUG\MAIN.OBJ
D:\备份\2019.5.7新备份\变动文件\嵌入式支持-调试\SELF_PROJECT\SELF_USEFILES\CLASSICPRACTICE\GATHER\DEBUG\GATHER.ILK
D:\备份\2019.5.7新备份\变动文件\嵌入式支持-调试\SELF_PROJECT\SELF_USEFILES\CLASSICPRACTICE\GATHER\DEBUG\GATHER.EXE
D:\备份\2019.5.7新备份\变动文件\嵌入式支持-调试\SELF_PROJECT\SELF_USEFILES\CLASSICPRACTICE\GATHER\DEBUG\GATHER.PDB
