^D:\备份\SYNOLOGYDRIVE\MY PROJIECT\VS2015 保存\GATHER\GATHER\DEBUG\MAIN.OBJ
/OUT:"D:\备份\SYNOLOGYDRIVE\MY PROJIECT\VS2015 保存\GATHER\DEBUG\GATHER.EXE" /INCREMENTAL /NOLOGO kernel32.lib user32.lib gdi32.lib winspool.lib comdlg32.lib advapi32.lib shell32.lib ole32.lib oleaut32.lib uuid.lib odbc32.lib odbccp32.lib /MANIFEST /MANIFESTUAC:"level='asInvoker' uiAccess='false'" /manifest:embed /DEBUG /PDB:"D:\备份\SYNOLOGYDRIVE\MY PROJIECT\VS2015 保存\GATHER\DEBUG\GATHER.PDB" /SUBSYSTEM:CONSOLE /TLBID:1 /DYNAMICBASE /NXCOMPAT /IMPLIB:"D:\备份\SYNOLOGYDRIVE\MY PROJIECT\VS2015 保存\GATHER\DEBUG\GATHER.LIB" /MACHINE:X86 DEBUG\MAIN.OBJ
^D:\备份\2019.5.7新备份\变动文件\嵌入式支持-调试\SELF_PROJECT\SELF_USEFILES\GATHER\GATHER\DEBUG\MAIN.OBJ
/OUT:"D:\备份\2019.5.7新备份\变动文件\嵌入式支持-调试\SELF_PROJECT\SELF_USEFILES\GATHER\DEBUG\GATHER.EXE" /INCREMENTAL /NOLOGO kernel32.lib user32.lib gdi32.lib winspool.lib comdlg32.lib advapi32.lib shell32.lib ole32.lib oleaut32.lib uuid.lib odbc32.lib odbccp32.lib /MANIFEST /MANIFESTUAC:"level='asInvoker' uiAccess='false'" /manifest:embed /DEBUG /PDB:"D:\备份\2019.5.7新备份\变动文件\嵌入式支持-调试\SELF_PROJECT\SELF_USEFILES\GATHER\DEBUG\GATHER.PDB" /SUBSYSTEM:CONSOLE /TLBID:1 /DYNAMICBASE /NXCOMPAT /IMPLIB:"D:\备份\2019.5.7新备份\变动文件\嵌入式支持-调试\SELF_PROJECT\SELF_USEFILES\GATHER\DEBUG\GATHER.LIB" /MACHINE:X86 DEBUG\MAIN.OBJ
^D:\备份\2019.5.7新备份\变动文件\嵌入式支持-调试\SELF_PROJECT\SELF_USEFILES\CLASSICPRACTICE\GATHER\GATHER\DEBUG\MAIN.OBJ
/OUT:"D:\备份\2019.5.7新备份\变动文件\嵌入式支持-调试\SELF_PROJECT\SELF_USEFILES\CLASSICPRACTICE\GATHER\DEBUG\GATHER.EXE" /INCREMENTAL /NOLOGO kernel32.lib user32.lib gdi32.lib winspool.lib comdlg32.lib advapi32.lib shell32.lib ole32.lib oleaut32.lib uuid.lib odbc32.lib odbccp32.lib /MANIFEST /MANIFESTUAC:"level='asInvoker' uiAccess='false'" /manifest:embed /DEBUG /PDB:"D:\备份\2019.5.7新备份\变动文件\嵌入式支持-调试\SELF_PROJECT\SELF_USEFILES\CLASSICPRACTICE\GATHER\DEBUG\GATHER.PDB" /SUBSYSTEM:CONSOLE /TLBID:1 /DYNAMICBASE /NXCOMPAT /IMPLIB:"D:\备份\2019.5.7新备份\变动文件\嵌入式支持-调试\SELF_PROJECT\SELF_USEFILES\CLASSICPRACTICE\GATHER\DEBUG\GATHER.LIB" /MACHINE:X86 DEBUG\MAIN.OBJ
