^D:\备份\2019.5.7新备份\变动文件\嵌入式支持-调试\SELF_PROJECT\SELF_USEFILES\FLSUHBONADING\ACCS_TOHEX\SELF_ACCSTOHEX.C|D:\备份\2019.5.7新备份\变动文件\嵌入式支持-调试\SELF_PROJECT\SELF_USEFILES\FLSUHBONADING\SELF_CRC\SELF_CRC.C|D:\备份\2019.5.7新备份\变动文件\嵌入式支持-调试\SELF_PROJECT\SELF_USEFILES\FLSUHBONADING\SELF_I2C\SELF_I2C.C|D:\备份\2019.5.7新备份\变动文件\嵌入式支持-调试\SELF_PROJECT\SELF_USEFILES\FLSUHBONADING\SELF_I2C\SELF_I2C_CFG.C|D:\备份\2019.5.7新备份\变动文件\嵌入式支持-调试\SELF_PROJECT\SELF_USEFILES\FLSUHBONADING\SELF_I2C\SELF_I2C_DVE.C|D:\备份\2019.5.7新备份\变动文件\嵌入式支持-调试\SELF_PROJECT\SELF_USEFILES\FLSUHBONADING\SELF_PRINTF\SELF_PRINTF.C|D:\备份\2019.5.7新备份\变动文件\嵌入式支持-调试\SELF_PROJECT\SELF_USEFILES\FLSUHBONADING\SELF_PRINTF\SELF_PRINTFUSE.C
D:\备份\2019.5.7新备份\变动文件\嵌入式支持-调试\SELF_PROJECT\SELF_VISUALSTUDIO\CONSOLEAPPLICATIONSELFPROJECT_C\X64\DEBUG\VC120.PDB
D:\备份\2019.5.7新备份\变动文件\嵌入式支持-调试\SELF_PROJECT\SELF_VISUALSTUDIO\CONSOLEAPPLICATIONSELFPROJECT_C\X64\DEBUG\VC120.IDB
D:\备份\2019.5.7新备份\变动文件\嵌入式支持-调试\SELF_PROJECT\SELF_VISUALSTUDIO\CONSOLEAPPLICATIONSELFPROJECT_C\X64\DEBUG\SELF_ACCSTOHEX.OBJ
D:\备份\2019.5.7新备份\变动文件\嵌入式支持-调试\SELF_PROJECT\SELF_VISUALSTUDIO\CONSOLEAPPLICATIONSELFPROJECT_C\X64\DEBUG\SELF_CRC.OBJ
D:\备份\2019.5.7新备份\变动文件\嵌入式支持-调试\SELF_PROJECT\SELF_VISUALSTUDIO\CONSOLEAPPLICATIONSELFPROJECT_C\X64\DEBUG\SELF_I2C.OBJ
D:\备份\2019.5.7新备份\变动文件\嵌入式支持-调试\SELF_PROJECT\SELF_VISUALSTUDIO\CONSOLEAPPLICATIONSELFPROJECT_C\X64\DEBUG\SELF_I2C_CFG.OBJ
D:\备份\2019.5.7新备份\变动文件\嵌入式支持-调试\SELF_PROJECT\SELF_VISUALSTUDIO\CONSOLEAPPLICATIONSELFPROJECT_C\X64\DEBUG\SELF_I2C_DVE.OBJ
D:\备份\2019.5.7新备份\变动文件\嵌入式支持-调试\SELF_PROJECT\SELF_VISUALSTUDIO\CONSOLEAPPLICATIONSELFPROJECT_C\X64\DEBUG\SELF_PRINTF.OBJ
D:\备份\2019.5.7新备份\变动文件\嵌入式支持-调试\SELF_PROJECT\SELF_VISUALSTUDIO\CONSOLEAPPLICATIONSELFPROJECT_C\X64\DEBUG\SELF_PRINTFUSE.OBJ
^D:\备份\2019.5.7新备份\变动文件\嵌入式支持-调试\SELF_PROJECT\SELF_USEFILES\FLSUHBONADING\ACCS_TOHEX\SELF_ACCSTOHEX.C
D:\备份\2019.5.7新备份\变动文件\嵌入式支持-调试\SELF_PROJECT\SELF_VISUALSTUDIO\CONSOLEAPPLICATIONSELFPROJECT_C\X64\DEBUG\VC120.PDB
D:\备份\2019.5.7新备份\变动文件\嵌入式支持-调试\SELF_PROJECT\SELF_VISUALSTUDIO\CONSOLEAPPLICATIONSELFPROJECT_C\X64\DEBUG\VC120.IDB
D:\备份\2019.5.7新备份\变动文件\嵌入式支持-调试\SELF_PROJECT\SELF_VISUALSTUDIO\CONSOLEAPPLICATIONSELFPROJECT_C\X64\DEBUG\SELF_ACCSTOHEX.OBJ
^D:\备份\2019.5.7新备份\变动文件\嵌入式支持-调试\SELF_PROJECT\SELF_USEFILES\FLSUHBONADING\SELF_CRC\SELF_CRC.C
D:\备份\2019.5.7新备份\变动文件\嵌入式支持-调试\SELF_PROJECT\SELF_VISUALSTUDIO\CONSOLEAPPLICATIONSELFPROJECT_C\X64\DEBUG\VC120.PDB
^D:\备份\2019.5.7新备份\变动文件\嵌入式支持-调试\SELF_PROJECT\SELF_USEFILES\FLSUHBONADING\SELF_I2C\SELF_I2C.C
D:\备份\2019.5.7新备份\变动文件\嵌入式支持-调试\SELF_PROJECT\SELF_VISUALSTUDIO\CONSOLEAPPLICATIONSELFPROJECT_C\X64\DEBUG\VC120.PDB
^D:\备份\2019.5.7新备份\变动文件\嵌入式支持-调试\SELF_PROJECT\SELF_USEFILES\FLSUHBONADING\SELF_I2C\SELF_I2C_CFG.C
D:\备份\2019.5.7新备份\变动文件\嵌入式支持-调试\SELF_PROJECT\SELF_VISUALSTUDIO\CONSOLEAPPLICATIONSELFPROJECT_C\X64\DEBUG\VC120.PDB
^D:\备份\2019.5.7新备份\变动文件\嵌入式支持-调试\SELF_PROJECT\SELF_USEFILES\FLSUHBONADING\SELF_I2C\SELF_I2C_DVE.C
D:\备份\2019.5.7新备份\变动文件\嵌入式支持-调试\SELF_PROJECT\SELF_VISUALSTUDIO\CONSOLEAPPLICATIONSELFPROJECT_C\X64\DEBUG\VC120.PDB
^D:\备份\2019.5.7新备份\变动文件\嵌入式支持-调试\SELF_PROJECT\SELF_USEFILES\FLSUHBONADING\SELF_PRINTF\SELF_PRINTF.C
D:\备份\2019.5.7新备份\变动文件\嵌入式支持-调试\SELF_PROJECT\SELF_VISUALSTUDIO\CONSOLEAPPLICATIONSELFPROJECT_C\X64\DEBUG\VC120.PDB
^D:\备份\2019.5.7新备份\变动文件\嵌入式支持-调试\SELF_PROJECT\SELF_USEFILES\FLSUHBONADING\SELF_PRINTF\SELF_PRINTFUSE.C
D:\备份\2019.5.7新备份\变动文件\嵌入式支持-调试\SELF_PROJECT\SELF_VISUALSTUDIO\CONSOLEAPPLICATIONSELFPROJECT_C\X64\DEBUG\VC120.PDB
^D:\备份\2019.5.7新备份\变动文件\嵌入式支持-调试\SELF_PROJECT\SELF_VISUALSTUDIO\CONSOLEAPPLICATIONSELFPROJECT_C\SELF_MAIN.CPP
D:\备份\2019.5.7新备份\变动文件\嵌入式支持-调试\SELF_PROJECT\SELF_VISUALSTUDIO\CONSOLEAPPLICATIONSELFPROJECT_C\X64\DEBUG\VC120.PDB
D:\备份\2019.5.7新备份\变动文件\嵌入式支持-调试\SELF_PROJECT\SELF_VISUALSTUDIO\CONSOLEAPPLICATIONSELFPROJECT_C\X64\DEBUG\VC120.IDB
D:\备份\2019.5.7新备份\变动文件\嵌入式支持-调试\SELF_PROJECT\SELF_VISUALSTUDIO\CONSOLEAPPLICATIONSELFPROJECT_C\X64\DEBUG\SELF_MAIN.OBJ
^D:\备份\2019.5.7新备份\变动文件\嵌入式支持-调试\SELF_PROJECT\SELF_VISUALSTUDIO\CONSOLEAPPLICATIONSELFPROJECT_C\SELF_MAIN.C
D:\备份\2019.5.7新备份\变动文件\嵌入式支持-调试\SELF_PROJECT\SELF_VISUALSTUDIO\CONSOLEAPPLICATIONSELFPROJECT_C\X64\DEBUG\VC120.PDB
D:\备份\2019.5.7新备份\变动文件\嵌入式支持-调试\SELF_PROJECT\SELF_VISUALSTUDIO\CONSOLEAPPLICATIONSELFPROJECT_C\X64\DEBUG\VC120.IDB
D:\备份\2019.5.7新备份\变动文件\嵌入式支持-调试\SELF_PROJECT\SELF_VISUALSTUDIO\CONSOLEAPPLICATIONSELFPROJECT_C\X64\DEBUG\SELF_MAIN.OBJ
^D:\备份\2019.5.7新备份\变动文件\嵌入式支持-调试\SELF_PROJECT\SELF_USEFILES\FLSUHBONADING\ACCS_TOHEX\SELF_ACCSTOHEX.C|D:\备份\2019.5.7新备份\变动文件\嵌入式支持-调试\SELF_PROJECT\SELF_VISUALSTUDIO\CONSOLEAPPLICATIONSELFPROJECT_C\SELF_MAIN.C
D:\备份\2019.5.7新备份\变动文件\嵌入式支持-调试\SELF_PROJECT\SELF_VISUALSTUDIO\CONSOLEAPPLICATIONSELFPROJECT_C\X64\DEBUG\VC120.PDB
D:\备份\2019.5.7新备份\变动文件\嵌入式支持-调试\SELF_PROJECT\SELF_VISUALSTUDIO\CONSOLEAPPLICATIONSELFPROJECT_C\X64\DEBUG\VC120.IDB
D:\备份\2019.5.7新备份\变动文件\嵌入式支持-调试\SELF_PROJECT\SELF_VISUALSTUDIO\CONSOLEAPPLICATIONSELFPROJECT_C\X64\DEBUG\SELF_ACCSTOHEX.OBJ
D:\备份\2019.5.7新备份\变动文件\嵌入式支持-调试\SELF_PROJECT\SELF_VISUALSTUDIO\CONSOLEAPPLICATIONSELFPROJECT_C\X64\DEBUG\SELF_MAIN.OBJ
^D:\备份\2019.5.7新备份\变动文件\嵌入式支持-调试\SELF_PROJECT\SELF_USEFILES\FLSUHBONADING\ACCS_TOHEX\SELF_ACCSTOHEX.C|D:\备份\2019.5.7新备份\变动文件\嵌入式支持-调试\SELF_PROJECT\SELF_USEFILES\FLSUHBONADING\SELF_CRC\SELF_CRC.C|D:\备份\2019.5.7新备份\变动文件\嵌入式支持-调试\SELF_PROJECT\SELF_USEFILES\FLSUHBONADING\SELF_I2C\SELF_I2C.C|D:\备份\2019.5.7新备份\变动文件\嵌入式支持-调试\SELF_PROJECT\SELF_USEFILES\FLSUHBONADING\SELF_I2C\SELF_I2C_CFG.C|D:\备份\2019.5.7新备份\变动文件\嵌入式支持-调试\SELF_PROJECT\SELF_USEFILES\FLSUHBONADING\SELF_I2C\SELF_I2C_DVE.C|D:\备份\2019.5.7新备份\变动文件\嵌入式支持-调试\SELF_PROJECT\SELF_USEFILES\FLSUHBONADING\SELF_PRINTF\SELF_PRINTF.C|D:\备份\2019.5.7新备份\变动文件\嵌入式支持-调试\SELF_PROJECT\SELF_USEFILES\FLSUHBONADING\SELF_PRINTF\SELF_PRINTFUSE.C|D:\备份\2019.5.7新备份\变动文件\嵌入式支持-调试\SELF_PROJECT\SELF_VISUALSTUDIO\CONSOLEAPPLICATIONSELFPROJECT_C\SELF_MAIN.C
D:\备份\2019.5.7新备份\变动文件\嵌入式支持-调试\SELF_PROJECT\SELF_VISUALSTUDIO\CONSOLEAPPLICATIONSELFPROJECT_C\X64\DEBUG\VC120.PDB
D:\备份\2019.5.7新备份\变动文件\嵌入式支持-调试\SELF_PROJECT\SELF_VISUALSTUDIO\CONSOLEAPPLICATIONSELFPROJECT_C\X64\DEBUG\VC120.IDB
D:\备份\2019.5.7新备份\变动文件\嵌入式支持-调试\SELF_PROJECT\SELF_VISUALSTUDIO\CONSOLEAPPLICATIONSELFPROJECT_C\X64\DEBUG\SELF_ACCSTOHEX.OBJ
D:\备份\2019.5.7新备份\变动文件\嵌入式支持-调试\SELF_PROJECT\SELF_VISUALSTUDIO\CONSOLEAPPLICATIONSELFPROJECT_C\X64\DEBUG\SELF_CRC.OBJ
D:\备份\2019.5.7新备份\变动文件\嵌入式支持-调试\SELF_PROJECT\SELF_VISUALSTUDIO\CONSOLEAPPLICATIONSELFPROJECT_C\X64\DEBUG\SELF_I2C.OBJ
D:\备份\2019.5.7新备份\变动文件\嵌入式支持-调试\SELF_PROJECT\SELF_VISUALSTUDIO\CONSOLEAPPLICATIONSELFPROJECT_C\X64\DEBUG\SELF_I2C_CFG.OBJ
D:\备份\2019.5.7新备份\变动文件\嵌入式支持-调试\SELF_PROJECT\SELF_VISUALSTUDIO\CONSOLEAPPLICATIONSELFPROJECT_C\X64\DEBUG\SELF_I2C_DVE.OBJ
D:\备份\2019.5.7新备份\变动文件\嵌入式支持-调试\SELF_PROJECT\SELF_VISUALSTUDIO\CONSOLEAPPLICATIONSELFPROJECT_C\X64\DEBUG\SELF_PRINTF.OBJ
D:\备份\2019.5.7新备份\变动文件\嵌入式支持-调试\SELF_PROJECT\SELF_VISUALSTUDIO\CONSOLEAPPLICATIONSELFPROJECT_C\X64\DEBUG\SELF_PRINTFUSE.OBJ
D:\备份\2019.5.7新备份\变动文件\嵌入式支持-调试\SELF_PROJECT\SELF_VISUALSTUDIO\CONSOLEAPPLICATIONSELFPROJECT_C\X64\DEBUG\SELF_MAIN.OBJ
^D:\备份\2019.5.7新备份\变动文件\嵌入式支持-调试\SELF_PROJECT\SELF_USEFILES\FLSUHBONADING\ACCS_TOHEX\SELF_ACCSTOHEX.C|D:\备份\2019.5.7新备份\变动文件\嵌入式支持-调试\SELF_PROJECT\SELF_USEFILES\FLSUHBONADING\SELF_I2C\SELF_I2C.C|D:\备份\2019.5.7新备份\变动文件\嵌入式支持-调试\SELF_PROJECT\SELF_USEFILES\FLSUHBONADING\SELF_I2C\SELF_I2C_CFG.C|D:\备份\2019.5.7新备份\变动文件\嵌入式支持-调试\SELF_PROJECT\SELF_USEFILES\FLSUHBONADING\SELF_I2C\SELF_I2C_DVE.C
D:\备份\2019.5.7新备份\变动文件\嵌入式支持-调试\SELF_PROJECT\SELF_VISUALSTUDIO\CONSOLEAPPLICATIONSELFPROJECT_C\X64\DEBUG\VC120.PDB
D:\备份\2019.5.7新备份\变动文件\嵌入式支持-调试\SELF_PROJECT\SELF_VISUALSTUDIO\CONSOLEAPPLICATIONSELFPROJECT_C\X64\DEBUG\VC120.IDB
D:\备份\2019.5.7新备份\变动文件\嵌入式支持-调试\SELF_PROJECT\SELF_VISUALSTUDIO\CONSOLEAPPLICATIONSELFPROJECT_C\X64\DEBUG\SELF_ACCSTOHEX.OBJ
D:\备份\2019.5.7新备份\变动文件\嵌入式支持-调试\SELF_PROJECT\SELF_VISUALSTUDIO\CONSOLEAPPLICATIONSELFPROJECT_C\X64\DEBUG\SELF_I2C.OBJ
D:\备份\2019.5.7新备份\变动文件\嵌入式支持-调试\SELF_PROJECT\SELF_VISUALSTUDIO\CONSOLEAPPLICATIONSELFPROJECT_C\X64\DEBUG\SELF_I2C_CFG.OBJ
D:\备份\2019.5.7新备份\变动文件\嵌入式支持-调试\SELF_PROJECT\SELF_VISUALSTUDIO\CONSOLEAPPLICATIONSELFPROJECT_C\X64\DEBUG\SELF_I2C_DVE.OBJ
^D:\备份\2019.5.7新备份\变动文件\嵌入式支持-调试\SELF_PROJECT\SELF_USEFILES\FLSUHBONADING\OBJECTORIENTEDSTATEMODE\MAIN.CPP|D:\备份\2019.5.7新备份\变动文件\嵌入式支持-调试\SELF_PROJECT\SELF_USEFILES\FLSUHBONADING\OBJECTORIENTEDSTATEMODE\STATE.CPP|D:\备份\2019.5.7新备份\变动文件\嵌入式支持-调试\SELF_PROJECT\SELF_USEFILES\FLSUHBONADING\SELF_SIGNAL_PROCESSING\SELF_SIGNAL_PROCESSING.CPP|D:\备份\2019.5.7新备份\变动文件\嵌入式支持-调试\SELF_PROJECT\SELF_USEFILES\POINTERLEARNINGANDPRACTICE\ARRAYPEARANDPEARARRAY\ARRAYPEARANDPEARARRAY\ARRAYPEARANDPEARARRAY.CPP
D:\备份\2019.5.7新备份\变动文件\嵌入式支持-调试\SELF_PROJECT\SELF_VISUALSTUDIO\CONSOLEAPPLICATIONSELFPROJECT_C\X64\DEBUG\VC120.PDB
D:\备份\2019.5.7新备份\变动文件\嵌入式支持-调试\SELF_PROJECT\SELF_VISUALSTUDIO\CONSOLEAPPLICATIONSELFPROJECT_C\X64\DEBUG\VC120.IDB
D:\备份\2019.5.7新备份\变动文件\嵌入式支持-调试\SELF_PROJECT\SELF_VISUALSTUDIO\CONSOLEAPPLICATIONSELFPROJECT_C\X64\DEBUG\MAIN.OBJ
D:\备份\2019.5.7新备份\变动文件\嵌入式支持-调试\SELF_PROJECT\SELF_VISUALSTUDIO\CONSOLEAPPLICATIONSELFPROJECT_C\X64\DEBUG\STATE.OBJ
D:\备份\2019.5.7新备份\变动文件\嵌入式支持-调试\SELF_PROJECT\SELF_VISUALSTUDIO\CONSOLEAPPLICATIONSELFPROJECT_C\X64\DEBUG\SELF_SIGNAL_PROCESSING.OBJ
D:\备份\2019.5.7新备份\变动文件\嵌入式支持-调试\SELF_PROJECT\SELF_VISUALSTUDIO\CONSOLEAPPLICATIONSELFPROJECT_C\X64\DEBUG\ARRAYPEARANDPEARARRAY.OBJ
^D:\备份\2019.5.7新备份\变动文件\嵌入式支持-调试\SELF_PROJECT\SELF_USEFILES\FLSUHBONADING\OBJECTORIENTEDSTATEMODE\MAIN.CPP
D:\备份\2019.5.7新备份\变动文件\嵌入式支持-调试\SELF_PROJECT\SELF_VISUALSTUDIO\CONSOLEAPPLICATIONSELFPROJECT_C\X64\DEBUG\VC120.PDB
^D:\备份\2019.5.7新备份\变动文件\嵌入式支持-调试\SELF_PROJECT\SELF_USEFILES\FLSUHBONADING\OBJECTORIENTEDSTATEMODE\STATE.CPP
D:\备份\2019.5.7新备份\变动文件\嵌入式支持-调试\SELF_PROJECT\SELF_VISUALSTUDIO\CONSOLEAPPLICATIONSELFPROJECT_C\X64\DEBUG\VC120.PDB
^D:\备份\2019.5.7新备份\变动文件\嵌入式支持-调试\SELF_PROJECT\SELF_USEFILES\FLSUHBONADING\SELF_SIGNAL_PROCESSING\SELF_SIGNAL_PROCESSING.CPP
D:\备份\2019.5.7新备份\变动文件\嵌入式支持-调试\SELF_PROJECT\SELF_VISUALSTUDIO\CONSOLEAPPLICATIONSELFPROJECT_C\X64\DEBUG\VC120.PDB
^D:\备份\2019.5.7新备份\变动文件\嵌入式支持-调试\SELF_PROJECT\SELF_USEFILES\POINTERLEARNINGANDPRACTICE\ARRAYPEARANDPEARARRAY\ARRAYPEARANDPEARARRAY\ARRAYPEARANDPEARARRAY.CPP
D:\备份\2019.5.7新备份\变动文件\嵌入式支持-调试\SELF_PROJECT\SELF_VISUALSTUDIO\CONSOLEAPPLICATIONSELFPROJECT_C\X64\DEBUG\VC120.PDB
^D:\备份\2019.5.7新备份\变动文件\GIT\SELF-PROJECT-VISUALSTUDIO\SELF_USEFILES\FLSUHBONADING\ACCS_TOHEX\SELF_ACCSTOHEX.C|D:\备份\2019.5.7新备份\变动文件\GIT\SELF-PROJECT-VISUALSTUDIO\SELF_USEFILES\FLSUHBONADING\SELF_CRC\SELF_CRC.C|D:\备份\2019.5.7新备份\变动文件\GIT\SELF-PROJECT-VISUALSTUDIO\SELF_USEFILES\FLSUHBONADING\SELF_I2C\SELF_I2C.C|D:\备份\2019.5.7新备份\变动文件\GIT\SELF-PROJECT-VISUALSTUDIO\SELF_USEFILES\FLSUHBONADING\SELF_I2C\SELF_I2C_CFG.C|D:\备份\2019.5.7新备份\变动文件\GIT\SELF-PROJECT-VISUALSTUDIO\SELF_USEFILES\FLSUHBONADING\SELF_I2C\SELF_I2C_DVE.C|D:\备份\2019.5.7新备份\变动文件\GIT\SELF-PROJECT-VISUALSTUDIO\SELF_USEFILES\FLSUHBONADING\SELF_PRINTF\SELF_PRINTF.C|D:\备份\2019.5.7新备份\变动文件\GIT\SELF-PROJECT-VISUALSTUDIO\SELF_USEFILES\FLSUHBONADING\SELF_PRINTF\SELF_PRINTFUSE.C
D:\备份\2019.5.7新备份\变动文件\GIT\SELF-PROJECT-VISUALSTUDIO\SELF_VISUALSTUDIO\CONSOLEAPPLICATIONSELFPROJECT_C\X64\DEBUG\VC120.PDB
D:\备份\2019.5.7新备份\变动文件\GIT\SELF-PROJECT-VISUALSTUDIO\SELF_VISUALSTUDIO\CONSOLEAPPLICATIONSELFPROJECT_C\X64\DEBUG\VC120.IDB
D:\备份\2019.5.7新备份\变动文件\GIT\SELF-PROJECT-VISUALSTUDIO\SELF_VISUALSTUDIO\CONSOLEAPPLICATIONSELFPROJECT_C\X64\DEBUG\SELF_ACCSTOHEX.OBJ
D:\备份\2019.5.7新备份\变动文件\GIT\SELF-PROJECT-VISUALSTUDIO\SELF_VISUALSTUDIO\CONSOLEAPPLICATIONSELFPROJECT_C\X64\DEBUG\SELF_CRC.OBJ
D:\备份\2019.5.7新备份\变动文件\GIT\SELF-PROJECT-VISUALSTUDIO\SELF_VISUALSTUDIO\CONSOLEAPPLICATIONSELFPROJECT_C\X64\DEBUG\SELF_I2C.OBJ
D:\备份\2019.5.7新备份\变动文件\GIT\SELF-PROJECT-VISUALSTUDIO\SELF_VISUALSTUDIO\CONSOLEAPPLICATIONSELFPROJECT_C\X64\DEBUG\SELF_I2C_CFG.OBJ
D:\备份\2019.5.7新备份\变动文件\GIT\SELF-PROJECT-VISUALSTUDIO\SELF_VISUALSTUDIO\CONSOLEAPPLICATIONSELFPROJECT_C\X64\DEBUG\SELF_I2C_DVE.OBJ
D:\备份\2019.5.7新备份\变动文件\GIT\SELF-PROJECT-VISUALSTUDIO\SELF_VISUALSTUDIO\CONSOLEAPPLICATIONSELFPROJECT_C\X64\DEBUG\SELF_PRINTF.OBJ
D:\备份\2019.5.7新备份\变动文件\GIT\SELF-PROJECT-VISUALSTUDIO\SELF_VISUALSTUDIO\CONSOLEAPPLICATIONSELFPROJECT_C\X64\DEBUG\SELF_PRINTFUSE.OBJ
^D:\备份\2019.5.7新备份\变动文件\GIT\SELF-PROJECT-VISUALSTUDIO\SELF_USEFILES\FLSUHBONADING\ACCS_TOHEX\SELF_ACCSTOHEX.C
D:\备份\2019.5.7新备份\变动文件\GIT\SELF-PROJECT-VISUALSTUDIO\SELF_VISUALSTUDIO\CONSOLEAPPLICATIONSELFPROJECT_C\X64\DEBUG\VC120.PDB
D:\备份\2019.5.7新备份\变动文件\GIT\SELF-PROJECT-VISUALSTUDIO\SELF_VISUALSTUDIO\CONSOLEAPPLICATIONSELFPROJECT_C\X64\DEBUG\VC120.IDB
D:\备份\2019.5.7新备份\变动文件\GIT\SELF-PROJECT-VISUALSTUDIO\SELF_VISUALSTUDIO\CONSOLEAPPLICATIONSELFPROJECT_C\X64\DEBUG\SELF_ACCSTOHEX.OBJ
^D:\备份\2019.5.7新备份\变动文件\GIT\SELF-PROJECT-VISUALSTUDIO\SELF_USEFILES\FLSUHBONADING\SELF_CRC\SELF_CRC.C
D:\备份\2019.5.7新备份\变动文件\GIT\SELF-PROJECT-VISUALSTUDIO\SELF_VISUALSTUDIO\CONSOLEAPPLICATIONSELFPROJECT_C\X64\DEBUG\VC120.PDB
^D:\备份\2019.5.7新备份\变动文件\GIT\SELF-PROJECT-VISUALSTUDIO\SELF_USEFILES\FLSUHBONADING\SELF_I2C\SELF_I2C.C
D:\备份\2019.5.7新备份\变动文件\GIT\SELF-PROJECT-VISUALSTUDIO\SELF_VISUALSTUDIO\CONSOLEAPPLICATIONSELFPROJECT_C\X64\DEBUG\VC120.PDB
^D:\备份\2019.5.7新备份\变动文件\GIT\SELF-PROJECT-VISUALSTUDIO\SELF_USEFILES\FLSUHBONADING\SELF_I2C\SELF_I2C_CFG.C
D:\备份\2019.5.7新备份\变动文件\GIT\SELF-PROJECT-VISUALSTUDIO\SELF_VISUALSTUDIO\CONSOLEAPPLICATIONSELFPROJECT_C\X64\DEBUG\VC120.PDB
^D:\备份\2019.5.7新备份\变动文件\GIT\SELF-PROJECT-VISUALSTUDIO\SELF_USEFILES\FLSUHBONADING\SELF_I2C\SELF_I2C_DVE.C
D:\备份\2019.5.7新备份\变动文件\GIT\SELF-PROJECT-VISUALSTUDIO\SELF_VISUALSTUDIO\CONSOLEAPPLICATIONSELFPROJECT_C\X64\DEBUG\VC120.PDB
^D:\备份\2019.5.7新备份\变动文件\GIT\SELF-PROJECT-VISUALSTUDIO\SELF_USEFILES\FLSUHBONADING\SELF_PRINTF\SELF_PRINTF.C
D:\备份\2019.5.7新备份\变动文件\GIT\SELF-PROJECT-VISUALSTUDIO\SELF_VISUALSTUDIO\CONSOLEAPPLICATIONSELFPROJECT_C\X64\DEBUG\VC120.PDB
D:\备份\2019.5.7新备份\变动文件\GIT\SELF-PROJECT-VISUALSTUDIO\SELF_VISUALSTUDIO\CONSOLEAPPLICATIONSELFPROJECT_C\X64\DEBUG\VC120.IDB
D:\备份\2019.5.7新备份\变动文件\GIT\SELF-PROJECT-VISUALSTUDIO\SELF_VISUALSTUDIO\CONSOLEAPPLICATIONSELFPROJECT_C\X64\DEBUG\SELF_PRINTF.OBJ
^D:\备份\2019.5.7新备份\变动文件\GIT\SELF-PROJECT-VISUALSTUDIO\SELF_USEFILES\FLSUHBONADING\SELF_PRINTF\SELF_PRINTFUSE.C
D:\备份\2019.5.7新备份\变动文件\GIT\SELF-PROJECT-VISUALSTUDIO\SELF_VISUALSTUDIO\CONSOLEAPPLICATIONSELFPROJECT_C\X64\DEBUG\VC120.PDB
^D:\备份\2019.5.7新备份\变动文件\GIT\SELF-PROJECT-VISUALSTUDIO\SELF_USEFILES\FLSUHBONADING\OBJECTORIENTEDSTATEMODE\MAIN.CPP|D:\备份\2019.5.7新备份\变动文件\GIT\SELF-PROJECT-VISUALSTUDIO\SELF_USEFILES\FLSUHBONADING\OBJECTORIENTEDSTATEMODE\STATE.CPP|D:\备份\2019.5.7新备份\变动文件\GIT\SELF-PROJECT-VISUALSTUDIO\SELF_USEFILES\FLSUHBONADING\SELF_SIGNAL_PROCESSING\SELF_SIGNAL_PROCESSING.CPP|D:\备份\2019.5.7新备份\变动文件\GIT\SELF-PROJECT-VISUALSTUDIO\SELF_USEFILES\POINTERLEARNINGANDPRACTICE\ARRAYPEARANDPEARARRAY\ARRAYPEARANDPEARARRAY\ARRAYPEARANDPEARARRAY.CPP
D:\备份\2019.5.7新备份\变动文件\GIT\SELF-PROJECT-VISUALSTUDIO\SELF_VISUALSTUDIO\CONSOLEAPPLICATIONSELFPROJECT_C\X64\DEBUG\VC120.PDB
D:\备份\2019.5.7新备份\变动文件\GIT\SELF-PROJECT-VISUALSTUDIO\SELF_VISUALSTUDIO\CONSOLEAPPLICATIONSELFPROJECT_C\X64\DEBUG\VC120.IDB
D:\备份\2019.5.7新备份\变动文件\GIT\SELF-PROJECT-VISUALSTUDIO\SELF_VISUALSTUDIO\CONSOLEAPPLICATIONSELFPROJECT_C\X64\DEBUG\MAIN.OBJ
D:\备份\2019.5.7新备份\变动文件\GIT\SELF-PROJECT-VISUALSTUDIO\SELF_VISUALSTUDIO\CONSOLEAPPLICATIONSELFPROJECT_C\X64\DEBUG\STATE.OBJ
D:\备份\2019.5.7新备份\变动文件\GIT\SELF-PROJECT-VISUALSTUDIO\SELF_VISUALSTUDIO\CONSOLEAPPLICATIONSELFPROJECT_C\X64\DEBUG\SELF_SIGNAL_PROCESSING.OBJ
D:\备份\2019.5.7新备份\变动文件\GIT\SELF-PROJECT-VISUALSTUDIO\SELF_VISUALSTUDIO\CONSOLEAPPLICATIONSELFPROJECT_C\X64\DEBUG\ARRAYPEARANDPEARARRAY.OBJ
^D:\备份\2019.5.7新备份\变动文件\GIT\SELF-PROJECT-VISUALSTUDIO\SELF_USEFILES\FLSUHBONADING\OBJECTORIENTEDSTATEMODE\MAIN.CPP
D:\备份\2019.5.7新备份\变动文件\GIT\SELF-PROJECT-VISUALSTUDIO\SELF_VISUALSTUDIO\CONSOLEAPPLICATIONSELFPROJECT_C\X64\DEBUG\VC120.PDB
^D:\备份\2019.5.7新备份\变动文件\GIT\SELF-PROJECT-VISUALSTUDIO\SELF_USEFILES\FLSUHBONADING\OBJECTORIENTEDSTATEMODE\STATE.CPP
D:\备份\2019.5.7新备份\变动文件\GIT\SELF-PROJECT-VISUALSTUDIO\SELF_VISUALSTUDIO\CONSOLEAPPLICATIONSELFPROJECT_C\X64\DEBUG\VC120.PDB
^D:\备份\2019.5.7新备份\变动文件\GIT\SELF-PROJECT-VISUALSTUDIO\SELF_USEFILES\FLSUHBONADING\SELF_SIGNAL_PROCESSING\SELF_SIGNAL_PROCESSING.CPP
D:\备份\2019.5.7新备份\变动文件\GIT\SELF-PROJECT-VISUALSTUDIO\SELF_VISUALSTUDIO\CONSOLEAPPLICATIONSELFPROJECT_C\X64\DEBUG\VC120.PDB
^D:\备份\2019.5.7新备份\变动文件\GIT\SELF-PROJECT-VISUALSTUDIO\SELF_USEFILES\POINTERLEARNINGANDPRACTICE\ARRAYPEARANDPEARARRAY\ARRAYPEARANDPEARARRAY\ARRAYPEARANDPEARARRAY.CPP
D:\备份\2019.5.7新备份\变动文件\GIT\SELF-PROJECT-VISUALSTUDIO\SELF_VISUALSTUDIO\CONSOLEAPPLICATIONSELFPROJECT_C\X64\DEBUG\VC120.PDB
D:\备份\2019.5.7新备份\变动文件\GIT\SELF-PROJECT-VISUALSTUDIO\SELF_VISUALSTUDIO\CONSOLEAPPLICATIONSELFPROJECT_C\X64\DEBUG\VC120.IDB
D:\备份\2019.5.7新备份\变动文件\GIT\SELF-PROJECT-VISUALSTUDIO\SELF_VISUALSTUDIO\CONSOLEAPPLICATIONSELFPROJECT_C\X64\DEBUG\ARRAYPEARANDPEARARRAY.OBJ
^D:\备份\2019.5.7新备份\变动文件\GIT\SELF-PROJECT-VISUALSTUDIO\SELF_USEFILES\FLSUHBONADING\SELF_I2C\SELF_I2C.C|D:\备份\2019.5.7新备份\变动文件\GIT\SELF-PROJECT-VISUALSTUDIO\SELF_USEFILES\FLSUHBONADING\SELF_I2C\SELF_I2C_CFG.C|D:\备份\2019.5.7新备份\变动文件\GIT\SELF-PROJECT-VISUALSTUDIO\SELF_USEFILES\FLSUHBONADING\SELF_I2C\SELF_I2C_DVE.C
D:\备份\2019.5.7新备份\变动文件\GIT\SELF-PROJECT-VISUALSTUDIO\SELF_VISUALSTUDIO\CONSOLEAPPLICATIONSELFPROJECT_C\X64\DEBUG\VC120.PDB
D:\备份\2019.5.7新备份\变动文件\GIT\SELF-PROJECT-VISUALSTUDIO\SELF_VISUALSTUDIO\CONSOLEAPPLICATIONSELFPROJECT_C\X64\DEBUG\VC120.IDB
D:\备份\2019.5.7新备份\变动文件\GIT\SELF-PROJECT-VISUALSTUDIO\SELF_VISUALSTUDIO\CONSOLEAPPLICATIONSELFPROJECT_C\X64\DEBUG\SELF_I2C.OBJ
D:\备份\2019.5.7新备份\变动文件\GIT\SELF-PROJECT-VISUALSTUDIO\SELF_VISUALSTUDIO\CONSOLEAPPLICATIONSELFPROJECT_C\X64\DEBUG\SELF_I2C_CFG.OBJ
D:\备份\2019.5.7新备份\变动文件\GIT\SELF-PROJECT-VISUALSTUDIO\SELF_VISUALSTUDIO\CONSOLEAPPLICATIONSELFPROJECT_C\X64\DEBUG\SELF_I2C_DVE.OBJ
^D:\备份\2019.5.7新备份\变动文件\GIT\SELF-PROJECT-VISUALSTUDIO\SELF_USEFILES\FLSUHBONADING\SELF_SIGNAL_PROCESSING\SELF_SIGNAL_PROCESSING.CPP|D:\备份\2019.5.7新备份\变动文件\GIT\SELF-PROJECT-VISUALSTUDIO\SELF_VISUALSTUDIO\CONSOLEAPPLICATIONSELFPROJECT_C\SELF_UART.CPP
D:\备份\2019.5.7新备份\变动文件\GIT\SELF-PROJECT-VISUALSTUDIO\SELF_VISUALSTUDIO\CONSOLEAPPLICATIONSELFPROJECT_C\X64\DEBUG\VC120.PDB
D:\备份\2019.5.7新备份\变动文件\GIT\SELF-PROJECT-VISUALSTUDIO\SELF_VISUALSTUDIO\CONSOLEAPPLICATIONSELFPROJECT_C\X64\DEBUG\VC120.IDB
D:\备份\2019.5.7新备份\变动文件\GIT\SELF-PROJECT-VISUALSTUDIO\SELF_VISUALSTUDIO\CONSOLEAPPLICATIONSELFPROJECT_C\X64\DEBUG\SELF_SIGNAL_PROCESSING.OBJ
D:\备份\2019.5.7新备份\变动文件\GIT\SELF-PROJECT-VISUALSTUDIO\SELF_VISUALSTUDIO\CONSOLEAPPLICATIONSELFPROJECT_C\X64\DEBUG\SELF_UART.OBJ
^D:\备份\2019.5.7新备份\变动文件\GIT\SELF-PROJECT-VISUALSTUDIO\SELF_VISUALSTUDIO\CONSOLEAPPLICATIONSELFPROJECT_C\SELF_UART.CPP
D:\备份\2019.5.7新备份\变动文件\GIT\SELF-PROJECT-VISUALSTUDIO\SELF_VISUALSTUDIO\CONSOLEAPPLICATIONSELFPROJECT_C\X64\DEBUG\VC120.PDB
D:\备份\2019.5.7新备份\变动文件\GIT\SELF-PROJECT-VISUALSTUDIO\SELF_VISUALSTUDIO\CONSOLEAPPLICATIONSELFPROJECT_C\X64\DEBUG\VC120.IDB
D:\备份\2019.5.7新备份\变动文件\GIT\SELF-PROJECT-VISUALSTUDIO\SELF_VISUALSTUDIO\CONSOLEAPPLICATIONSELFPROJECT_C\X64\DEBUG\SELF_UART.OBJ
^D:\备份\2019.5.7新备份\变动文件\GIT\SELF-PROJECT-VISUALSTUDIO\SELF_USEFILES\FLSUHBONADING\SELF_I2C\SELF_I2C_CFG.C|D:\备份\2019.5.7新备份\变动文件\GIT\SELF-PROJECT-VISUALSTUDIO\SELF_USEFILES\FLSUHBONADING\SELF_I2C\SELF_I2C_DVE.C
D:\备份\2019.5.7新备份\变动文件\GIT\SELF-PROJECT-VISUALSTUDIO\SELF_VISUALSTUDIO\CONSOLEAPPLICATIONSELFPROJECT_C\X64\DEBUG\VC120.PDB
D:\备份\2019.5.7新备份\变动文件\GIT\SELF-PROJECT-VISUALSTUDIO\SELF_VISUALSTUDIO\CONSOLEAPPLICATIONSELFPROJECT_C\X64\DEBUG\VC120.IDB
D:\备份\2019.5.7新备份\变动文件\GIT\SELF-PROJECT-VISUALSTUDIO\SELF_VISUALSTUDIO\CONSOLEAPPLICATIONSELFPROJECT_C\X64\DEBUG\SELF_I2C_CFG.OBJ
D:\备份\2019.5.7新备份\变动文件\GIT\SELF-PROJECT-VISUALSTUDIO\SELF_VISUALSTUDIO\CONSOLEAPPLICATIONSELFPROJECT_C\X64\DEBUG\SELF_I2C_DVE.OBJ
^D:\备份\2019.5.7新备份\变动文件\GIT\SELF-PROJECT-VISUALSTUDIO\SELF_VISUALSTUDIO\CONSOLEAPPLICATIONSELFPROJECT_C\SELF_MAIN.C
D:\备份\2019.5.7新备份\变动文件\GIT\SELF-PROJECT-VISUALSTUDIO\SELF_VISUALSTUDIO\CONSOLEAPPLICATIONSELFPROJECT_C\X64\DEBUG\VC120.PDB
D:\备份\2019.5.7新备份\变动文件\GIT\SELF-PROJECT-VISUALSTUDIO\SELF_VISUALSTUDIO\CONSOLEAPPLICATIONSELFPROJECT_C\X64\DEBUG\VC120.IDB
D:\备份\2019.5.7新备份\变动文件\GIT\SELF-PROJECT-VISUALSTUDIO\SELF_VISUALSTUDIO\CONSOLEAPPLICATIONSELFPROJECT_C\X64\DEBUG\SELF_MAIN.OBJ
^D:\备份\2019.5.7新备份\变动文件\GIT\SELF-PROJECT-VISUALSTUDIO\SELF_USEFILES\FLSUHBONADING\ACCS_TOHEX\SELF_ACCSTOHEX.C|D:\备份\2019.5.7新备份\变动文件\GIT\SELF-PROJECT-VISUALSTUDIO\SELF_VISUALSTUDIO\CONSOLEAPPLICATIONSELFPROJECT_C\SELF_MAIN.C
D:\备份\2019.5.7新备份\变动文件\GIT\SELF-PROJECT-VISUALSTUDIO\SELF_VISUALSTUDIO\CONSOLEAPPLICATIONSELFPROJECT_C\X64\DEBUG\VC120.PDB
D:\备份\2019.5.7新备份\变动文件\GIT\SELF-PROJECT-VISUALSTUDIO\SELF_VISUALSTUDIO\CONSOLEAPPLICATIONSELFPROJECT_C\X64\DEBUG\VC120.IDB
D:\备份\2019.5.7新备份\变动文件\GIT\SELF-PROJECT-VISUALSTUDIO\SELF_VISUALSTUDIO\CONSOLEAPPLICATIONSELFPROJECT_C\X64\DEBUG\SELF_ACCSTOHEX.OBJ
D:\备份\2019.5.7新备份\变动文件\GIT\SELF-PROJECT-VISUALSTUDIO\SELF_VISUALSTUDIO\CONSOLEAPPLICATIONSELFPROJECT_C\X64\DEBUG\SELF_MAIN.OBJ
