^D:\备份\2019.5.7新备份\变动文件\嵌入式支持-调试\SELF_PROJECT\SELF_VISUALSTUDIO\CONSOLEAPPLICATIONSELFPROJECT_C\X64\DEBUG\ARRAYPEARANDPEARARRAY.OBJ|D:\备份\2019.5.7新备份\变动文件\嵌入式支持-调试\SELF_PROJECT\SELF_VISUALSTUDIO\CONSOLEAPPLICATIONSELFPROJECT_C\X64\DEBUG\MAIN.OBJ|D:\备份\2019.5.7新备份\变动文件\嵌入式支持-调试\SELF_PROJECT\SELF_VISUALSTUDIO\CONSOLEAPPLICATIONSELFPROJECT_C\X64\DEBUG\SELF_ACCSTOHEX.OBJ|D:\备份\2019.5.7新备份\变动文件\嵌入式支持-调试\SELF_PROJECT\SELF_VISUALSTUDIO\CONSOLEAPPLICATIONSELFPROJECT_C\X64\DEBUG\SELF_CRC.OBJ|D:\备份\2019.5.7新备份\变动文件\嵌入式支持-调试\SELF_PROJECT\SELF_VISUALSTUDIO\CONSOLEAPPLICATIONSELFPROJECT_C\X64\DEBUG\SELF_I2C.OBJ|D:\备份\2019.5.7新备份\变动文件\嵌入式支持-调试\SELF_PROJECT\SELF_VISUALSTUDIO\CONSOLEAPPLICATIONSELFPROJECT_C\X64\DEBUG\SELF_I2C_CFG.OBJ|D:\备份\2019.5.7新备份\变动文件\嵌入式支持-调试\SELF_PROJECT\SELF_VISUALSTUDIO\CONSOLEAPPLICATIONSELFPROJECT_C\X64\DEBUG\SELF_I2C_DVE.OBJ|D:\备份\2019.5.7新备份\变动文件\嵌入式支持-调试\SELF_PROJECT\SELF_VISUALSTUDIO\CONSOLEAPPLICATIONSELFPROJECT_C\X64\DEBUG\SELF_PRINTF.OBJ|D:\备份\2019.5.7新备份\变动文件\嵌入式支持-调试\SELF_PROJECT\SELF_VISUALSTUDIO\CONSOLEAPPLICATIONSELFPROJECT_C\X64\DEBUG\SELF_PRINTFUSE.OBJ|D:\备份\2019.5.7新备份\变动文件\嵌入式支持-调试\SELF_PROJECT\SELF_VISUALSTUDIO\CONSOLEAPPLICATIONSELFPROJECT_C\X64\DEBUG\SELF_SIGNAL_PROCESSING.OBJ|D:\备份\2019.5.7新备份\变动文件\嵌入式支持-调试\SELF_PROJECT\SELF_VISUALSTUDIO\CONSOLEAPPLICATIONSELFPROJECT_C\X64\DEBUG\STATE.OBJ
D:\备份\2019.5.7新备份\变动文件\嵌入式支持-调试\SELF_PROJECT\SELF_VISUALSTUDIO\CONSOLEAPPLICATIONSELFPROJECT_C\X64\DEBUG\CONSOLEAPPLICATIONSELFPROJECT_C.ILK
D:\备份\2019.5.7新备份\变动文件\嵌入式支持-调试\SELF_PROJECT\SELF_VISUALSTUDIO\CONSOLEAPPLICATIONSELFPROJECT_C\X64\DEBUG\CONSOLEAPPLICATIONSELFPROJECT_C.EXE
D:\备份\2019.5.7新备份\变动文件\嵌入式支持-调试\SELF_PROJECT\SELF_VISUALSTUDIO\CONSOLEAPPLICATIONSELFPROJECT_C\X64\DEBUG\CONSOLEAPPLICATIONSELFPROJECT_C.PDB
^D:\备份\2019.5.7新备份\变动文件\GIT\SELF-PROJECT-VISUALSTUDIO\SELF_VISUALSTUDIO\CONSOLEAPPLICATIONSELFPROJECT_C\X64\DEBUG\SELF_ACCSTOHEX.OBJ|D:\备份\2019.5.7新备份\变动文件\GIT\SELF-PROJECT-VISUALSTUDIO\SELF_VISUALSTUDIO\CONSOLEAPPLICATIONSELFPROJECT_C\X64\DEBUG\SELF_CRC.OBJ|D:\备份\2019.5.7新备份\变动文件\GIT\SELF-PROJECT-VISUALSTUDIO\SELF_VISUALSTUDIO\CONSOLEAPPLICATIONSELFPROJECT_C\X64\DEBUG\SELF_I2C.OBJ|D:\备份\2019.5.7新备份\变动文件\GIT\SELF-PROJECT-VISUALSTUDIO\SELF_VISUALSTUDIO\CONSOLEAPPLICATIONSELFPROJECT_C\X64\DEBUG\SELF_I2C_CFG.OBJ|D:\备份\2019.5.7新备份\变动文件\GIT\SELF-PROJECT-VISUALSTUDIO\SELF_VISUALSTUDIO\CONSOLEAPPLICATIONSELFPROJECT_C\X64\DEBUG\SELF_I2C_DVE.OBJ|D:\备份\2019.5.7新备份\变动文件\GIT\SELF-PROJECT-VISUALSTUDIO\SELF_VISUALSTUDIO\CONSOLEAPPLICATIONSELFPROJECT_C\X64\DEBUG\SELF_MAIN.OBJ|D:\备份\2019.5.7新备份\变动文件\GIT\SELF-PROJECT-VISUALSTUDIO\SELF_VISUALSTUDIO\CONSOLEAPPLICATIONSELFPROJECT_C\X64\DEBUG\SELF_PRINTF.OBJ|D:\备份\2019.5.7新备份\变动文件\GIT\SELF-PROJECT-VISUALSTUDIO\SELF_VISUALSTUDIO\CONSOLEAPPLICATIONSELFPROJECT_C\X64\DEBUG\SELF_PRINTFUSE.OBJ|D:\备份\2019.5.7新备份\变动文件\GIT\SELF-PROJECT-VISUALSTUDIO\SELF_VISUALSTUDIO\CONSOLEAPPLICATIONSELFPROJECT_C\X64\DEBUG\SELF_SIGNAL_PROCESSING.OBJ|D:\备份\2019.5.7新备份\变动文件\GIT\SELF-PROJECT-VISUALSTUDIO\SELF_VISUALSTUDIO\CONSOLEAPPLICATIONSELFPROJECT_C\X64\DEBUG\SELF_UART.OBJ|D:\备份\2019.5.7新备份\变动文件\GIT\SELF-PROJECT-VISUALSTUDIO\SELF_VISUALSTUDIO\CONSOLEAPPLICATIONSELFPROJECT_C\X64\DEBUG\STATE.OBJ
D:\备份\2019.5.7新备份\变动文件\GIT\SELF-PROJECT-VISUALSTUDIO\SELF_VISUALSTUDIO\CONSOLEAPPLICATIONSELFPROJECT_C\X64\DEBUG\CONSOLEAPPLICATIONSELFPROJECT_C.ILK
D:\备份\2019.5.7新备份\变动文件\GIT\SELF-PROJECT-VISUALSTUDIO\SELF_VISUALSTUDIO\CONSOLEAPPLICATIONSELFPROJECT_C\X64\DEBUG\CONSOLEAPPLICATIONSELFPROJECT_C.EXE
D:\备份\2019.5.7新备份\变动文件\GIT\SELF-PROJECT-VISUALSTUDIO\SELF_VISUALSTUDIO\CONSOLEAPPLICATIONSELFPROJECT_C\X64\DEBUG\CONSOLEAPPLICATIONSELFPROJECT_C.PDB
