^D:\备份\SYNOLOGYDRIVE\MY PROJIECT\VS2015 保存\CHARACTERINVERSION\CHARACTERINVERSION\STDAFX.CPP
/c /ZI /nologo /W3 /WX- /Od /Oy- /D WIN32 /D _DEBUG /D _CONSOLE /D _LIB /D _UNICODE /D UNICODE /Gm /EHsc /RTC1 /MDd /GS /fp:precise /Zc:wchar_t /Zc:forScope /Yc"stdafx.h" /Fp"DEBUG\CHARACTERINVERSION.PCH" /Fo"DEBUG\\" /Fd"DEBUG\VC120.PDB" /Gd /TP /analyze- D:\备份\SYNOLOGYDRIVE\MY PROJIECT\VS2015 保存\CHARACTERINVERSION\CHARACTERINVERSION\STDAFX.CPP
^D:\备份\SYNOLOGYDRIVE\MY PROJIECT\VS2015 保存\CHARACTERINVERSION\CHARACTERINVERSION\CHARACTERINVERSION.CPP
/c /ZI /nologo /W3 /WX- /Od /Oy- /D WIN32 /D _DEBUG /D _CONSOLE /D _LIB /D _UNICODE /D UNICODE /Gm /EHsc /RTC1 /MDd /GS /fp:precise /Zc:wchar_t /Zc:forScope /Yu"stdafx.h" /Fp"DEBUG\CHARACTERINVERSION.PCH" /Fo"DEBUG\\" /Fd"DEBUG\VC120.PDB" /Gd /TP /analyze- D:\备份\SYNOLOGYDRIVE\MY PROJIECT\VS2015 保存\CHARACTERINVERSION\CHARACTERINVERSION\CHARACTERINVERSION.CPP
^D:\备份\2019.5.7新备份\变动文件\嵌入式支持-调试\SELF_PROJECT\SELF_USEFILES\CHARACTERINVERSION\CHARACTERINVERSION\STDAFX.CPP
/c /ZI /nologo /W3 /WX- /Od /Oy- /D WIN32 /D _DEBUG /D _CONSOLE /D _LIB /D _UNICODE /D UNICODE /Gm /EHsc /RTC1 /MDd /GS /fp:precise /Zc:wchar_t /Zc:forScope /Yc"stdafx.h" /Fp"DEBUG\CHARACTERINVERSION.PCH" /Fo"DEBUG\\" /Fd"DEBUG\VC120.PDB" /Gd /TP /analyze- D:\备份\2019.5.7新备份\变动文件\嵌入式支持-调试\SELF_PROJECT\SELF_USEFILES\CHARACTERINVERSION\CHARACTERINVERSION\STDAFX.CPP
^D:\备份\2019.5.7新备份\变动文件\嵌入式支持-调试\SELF_PROJECT\SELF_USEFILES\CHARACTERINVERSION\CHARACTERINVERSION\CHARACTERINVERSION.CPP
/c /ZI /nologo /W3 /WX- /Od /Oy- /D WIN32 /D _DEBUG /D _CONSOLE /D _LIB /D _UNICODE /D UNICODE /Gm /EHsc /RTC1 /MDd /GS /fp:precise /Zc:wchar_t /Zc:forScope /Yu"stdafx.h" /Fp"DEBUG\CHARACTERINVERSION.PCH" /Fo"DEBUG\\" /Fd"DEBUG\VC120.PDB" /Gd /TP /analyze- D:\备份\2019.5.7新备份\变动文件\嵌入式支持-调试\SELF_PROJECT\SELF_USEFILES\CHARACTERINVERSION\CHARACTERINVERSION\CHARACTERINVERSION.CPP
