^D:\备份\SYNOLOGYDRIVE\MY PROJIECT\VS2015 保存\CHARACTERINVERSION\CHARACTERINVERSION\DEBUG\CHARACTERINVERSION.OBJ|D:\备份\SYNOLOGYDRIVE\MY PROJIECT\VS2015 保存\CHARACTERINVERSION\CHARACTERINVERSION\DEBUG\STDAFX.OBJ
D:\备份\SYNOLOGYDRIVE\MY PROJIECT\VS2015 保存\CHARACTERINVERSION\DEBUG\CHARACTERINVERSION.ILK
D:\备份\SYNOLOGYDRIVE\MY PROJIECT\VS2015 保存\CHARACTERINVERSION\DEBUG\CHARACTERINVERSION.EXE
D:\备份\SYNOLOGYDRIVE\MY PROJIECT\VS2015 保存\CHARACTERINVERSION\DEBUG\CHARACTERINVERSION.PDB
^D:\备份\2019.5.7新备份\变动文件\嵌入式支持-调试\SELF_PROJECT\SELF_USEFILES\CHARACTERINVERSION\CHARACTERINVERSION\DEBUG\CHARACTERINVERSION.OBJ|D:\备份\2019.5.7新备份\变动文件\嵌入式支持-调试\SELF_PROJECT\SELF_USEFILES\CHARACTERINVERSION\CHARACTERINVERSION\DEBUG\STDAFX.OBJ
D:\备份\2019.5.7新备份\变动文件\嵌入式支持-调试\SELF_PROJECT\SELF_USEFILES\CHARACTERINVERSION\DEBUG\CHARACTERINVERSION.ILK
D:\备份\2019.5.7新备份\变动文件\嵌入式支持-调试\SELF_PROJECT\SELF_USEFILES\CHARACTERINVERSION\DEBUG\CHARACTERINVERSION.EXE
D:\备份\2019.5.7新备份\变动文件\嵌入式支持-调试\SELF_PROJECT\SELF_USEFILES\CHARACTERINVERSION\DEBUG\CHARACTERINVERSION.PDB
