﻿1>------ 已启动生成:  项目: Project1-end, 配置: Debug Win32 ------
1>  Project1-end.cpp
1>  Project1-end.vcxproj -> D:\备份\SynologyDrive\my projiect\VS2015 保存\Project1-end\Debug\Project1-end.exe
========== 生成:  成功 1 个，失败 0 个，最新 0 个，跳过 0 个 ==========
