^D:\备份\2019.5.7新备份\变动文件\嵌入式支持-调试\SELF_PROJECT\SELF_USEFILES\PROJECT1-END\PROJECT1-END\DEBUG\PROJECT1-END.OBJ|D:\备份\2019.5.7新备份\变动文件\嵌入式支持-调试\SELF_PROJECT\SELF_USEFILES\PROJECT1-END\PROJECT1-END\DEBUG\STDAFX.OBJ
D:\备份\2019.5.7新备份\变动文件\嵌入式支持-调试\SELF_PROJECT\SELF_USEFILES\PROJECT1-END\DEBUG\PROJECT1-END.ILK
D:\备份\2019.5.7新备份\变动文件\嵌入式支持-调试\SELF_PROJECT\SELF_USEFILES\PROJECT1-END\DEBUG\PROJECT1-END.EXE
D:\备份\2019.5.7新备份\变动文件\嵌入式支持-调试\SELF_PROJECT\SELF_USEFILES\PROJECT1-END\DEBUG\PROJECT1-END.PDB
^D:\备份\2019.5.7新备份\变动文件\嵌入式支持-调试\SELF_PROJECT\SELF_USEFILES\CLASSICPRACTICE\FILSPRACTICE\PROJECT1-END\DEBUG\PROJECT1-END.OBJ|D:\备份\2019.5.7新备份\变动文件\嵌入式支持-调试\SELF_PROJECT\SELF_USEFILES\CLASSICPRACTICE\FILSPRACTICE\PROJECT1-END\DEBUG\STDAFX.OBJ
D:\备份\2019.5.7新备份\变动文件\嵌入式支持-调试\SELF_PROJECT\SELF_USEFILES\CLASSICPRACTICE\FILSPRACTICE\DEBUG\PROJECT1-END.ILK
D:\备份\2019.5.7新备份\变动文件\嵌入式支持-调试\SELF_PROJECT\SELF_USEFILES\CLASSICPRACTICE\FILSPRACTICE\DEBUG\PROJECT1-END.EXE
D:\备份\2019.5.7新备份\变动文件\嵌入式支持-调试\SELF_PROJECT\SELF_USEFILES\CLASSICPRACTICE\FILSPRACTICE\DEBUG\PROJECT1-END.PDB
