^D:\备份\2019.5.7新备份\变动文件\嵌入式支持-调试\SELF_PROJECT\SELF_USEFILES\MAXNUMBER\MAXNUMBER\DEBUG\MAXNUMBER.OBJ|D:\备份\2019.5.7新备份\变动文件\嵌入式支持-调试\SELF_PROJECT\SELF_USEFILES\MAXNUMBER\MAXNUMBER\DEBUG\STDAFX.OBJ
D:\备份\2019.5.7新备份\变动文件\嵌入式支持-调试\SELF_PROJECT\SELF_USEFILES\MAXNUMBER\DEBUG\MAXNUMBER.ILK
D:\备份\2019.5.7新备份\变动文件\嵌入式支持-调试\SELF_PROJECT\SELF_USEFILES\MAXNUMBER\DEBUG\MAXNUMBER.EXE
D:\备份\2019.5.7新备份\变动文件\嵌入式支持-调试\SELF_PROJECT\SELF_USEFILES\MAXNUMBER\DEBUG\MAXNUMBER.PDB
